{
    "$schema": "https://vega.github.io/schema/vega/v5.json",
    "width": 1000,
    "height": 200,
    "padding": 5,

    "data": [
        {
        "name": "table",
        "values": [
            {"category": "Critical", "amount": 0, "color": "#ff0000"},
            {"category": "High", "amount": 0, "color": "#ffa500"},
            {"category": "Medium", "amount": 0, "color": "#daff00"},
            {"category": "Low", "amount": 0, "color": "#00daff"},
            {"category": "Unknown", "amount": 0, "color": "#bfe3b4"},
            {"category": "Info", "amount": 0, "color": "#000000"}
        ]
        }
    ],

    "scales": [
        {
        "name": "xscale",
        "type": "band",
        "domain": {"data": "table", "field": "category"},
        "range": "width",
        "padding": 0.05,
        "round": true
        },
        {
        "name": "yscale",
        "domain": {"data": "table", "field": "amount"},
        "nice": true,
        "range": "height"
        }
    ],

    "axes": [
        { "orient": "bottom", "scale": "xscale", "labelColor": "white" },
        { "orient": "left", "scale": "yscale", "labelColor": "white","tickCount": 6 }
    ],

    "marks": [
        {
        "type": "rect",
        "from": {"data":"table"},
        "encode": {
            "enter": {
            "x": {"scale": "xscale", "field": "category"},
            "width": {"scale": "xscale", "band": 1},
            "y": {"scale": "yscale", "field": "amount"},
            "y2": {"scale": "yscale", "value": 0},
            "fill": {"value": "color", "field": "color"}
            }
        }
        }
    ]
}